<?xml version="1.0" encoding="utf-8"?>
<!-- Generator: Adobe Illustrator 22.0.1, SVG Export Plug-In . SVG Version: 6.00 Build 0)  -->
<svg version="1.1" id="Capa_1" xmlns="http://www.w3.org/2000/svg" xmlns:xlink="http://www.w3.org/1999/xlink" x="0px" y="0px"
	 viewBox="0 0 512 512" style="enable-background:new 0 0 512 512;" xml:space="preserve">
<style type="text/css">
	.st0{fill:#757575;}
</style>
<g>
	<g>
		<path class="st0" d="M256.9,43.5h191.3c11.8,0,21.3,9.5,21.3,21.3v382.6c0,11.8-9.5,21.3-21.3,21.3H257.5
			c-12,0-22.1,9.8-21.8,21.7c0.3,11.5,9.7,20.8,21.3,20.8h191.2c35.2,0,63.8-28.5,63.8-63.8V64.7c0-35.2-28.6-63.8-63.8-63.8H257.5
			c-12,0-22.1,9.8-21.8,21.7C235.8,34.2,245.3,43.5,256.9,43.5z"/>
	</g>
</g>
<g>
	<g>
		<path class="st0" d="M6.3,271.3l129.3,127.6c8.3,8.3,21.8,8.1,30.1-0.2s8.2-21.8-0.2-30.1l-92.3-91.1v-0.1h246.9
			c12,0,22.1-9.8,21.8-21.7c-0.3-11.5-9.7-20.8-21.3-20.8H73.2c0,0,0,0,0-0.1l92.3-91.1c8.4-8.3,8.4-21.7,0.2-30.1
			c-4.2-4.2-9.7-6.3-15.1-6.3s-10.8,2-14.9,6.1L6.3,241.1c-4,4-6.3,9.4-6.3,15.1C0,261.9,2.3,267.3,6.3,271.3z"/>
	</g>
</g>
</svg>
